<?xml version="1.0" encoding="utf-8"?>
<!-- Generator: Adobe Illustrator 16.0.0, SVG Export Plug-In . SVG Version: 6.00 Build 0)  -->
<!DOCTYPE svg PUBLIC "-//W3C//DTD SVG 1.1//EN" "http://www.w3.org/Graphics/SVG/1.1/DTD/svg11.dtd">
<svg version="1.1" id="Livello_1" xmlns="http://www.w3.org/2000/svg" xmlns:xlink="http://www.w3.org/1999/xlink" x="0px" y="0px"
	 width="90px" height="90px" viewBox="29 8 90 90" enable-background="new 29 8 90 90" xml:space="preserve">
<g>
	<path fill="#EAC771" d="M109.087,93.42c-1.663,0-3.059-1.365-3.253-3.02c-3.112-26.904-20.486-34.088-32.667-35.754v13.066
		c0,1.254-0.723,2.398-1.85,2.943c-1.136,0.553-2.474,0.414-3.461-0.361L34.828,44.359c-0.796-0.615-1.259-1.564-1.259-2.58
		c0-1.004,0.463-1.955,1.259-2.578l33.028-25.926c0.987-0.777,2.334-0.912,3.461-0.361c1.127,0.545,1.85,1.688,1.85,2.949v11.322
		c15.275,2.479,26.516,8.754,33.436,18.686c7.762,11.123,9.838,26.82,5.843,44.184l-0.104,0.49c-0.15,1.674-1.526,2.848-3.209,2.875
		C109.114,93.42,109.096,93.42,109.087,93.42z M69.878,47.742c0.068,0,0.143,0,0.208,0c9.2,0.594,28.573,4.354,37.776,24.768
		c-0.11-7.539-1.711-15.816-6.648-22.885c-6.242-8.957-16.925-14.449-31.754-16.346c-1.64-0.207-2.86-1.605-2.86-3.262v-7.402
		L42.167,41.779L66.6,60.963v-9.939c0-0.908,0.375-1.768,1.04-2.398C68.244,48.059,69.052,47.742,69.878,47.742z"/>
</g>
</svg>
